10 1 550
10 2 555
10 3 540
10 4 558
10 5 548
10 6 539
10 7 556
10 8 554
10 9 555
10 10 567
10 11 558
10 12 547
10 13 559
10 14 551
10 15 551
10 16 545
10 17 562
10 18 569
10 19 547
10 20 550
10 21 554
10 22 550
10 23 550
10 24 547
10 25 553
10 26 545
10 27 545
10 28 542
10 29 542
10 30 551
10 31 555
10 32 554
10 33 548
10 34 551
10 35 562
10 36 562
10 37 541
10 38 546
10 39 550
10 40 563
10 41 549
10 42 553
10 43 549
10 44 539
10 45 542
10 46 550
10 47 561
10 48 552
10 49 542
10 50 552
10 51 545
10 52 549
10 53 541
10 54 547
10 55 552
10 56 555
10 57 562
10 58 553
10 59 556
10 60 546
10 61 556
10 62 556
10 63 553
10 64 561
10 65 555
10 66 549
10 67 570
10 68 554
10 69 549
10 70 537
10 71 551
10 72 546
10 73 552
10 74 552
10 75 559
10 76 550
10 77 553
10 78 544
10 79 548
10 80 549
10 81 545
10 82 554
10 83 559
10 84 548
10 85 553
10 86 558
10 87 546
10 88 544
10 89 556
10 90 551
10 91 563
10 92 555
10 93 551
10 94 561
10 95 533
10 96 556
10 97 563
10 98 555
10 99 537
10 100 545
10 101 542
10 102 544
10 103 557
10 104 539
10 105 551
10 106 553
10 107 558
10 108 560
10 109 546
10 110 549
10 111 557
10 112 552
10 113 550
10 114 547
10 115 560
10 116 556
10 117 561
10 118 557
10 119 539
10 120 547
10 121 559
10 122 542
10 123 544
10 124 549
10 125 539
10 126 555
10 127 556
10 128 556
10 129 558
10 130 551
10 131 548
10 132 559
10 133 553
10 134 547
10 135 548
10 136 561
10 137 563
10 138 545
10 139 551
10 140 551
10 141 551
10 142 552
10 143 554
10 144 548
10 145 543
10 146 547
10 147 549
10 148 549
10 149 557
10 150 571
10 151 553
10 152 549
10 153 544
10 154 562
10 155 548
10 156 544
10 157 552
10 158 549
10 159 546
10 160 555
10 161 563
10 162 550
10 163 547
10 164 554
10 165 553
10 166 558
10 167 560
10 168 561
10 169 551
10 170 549
10 171 541
10 172 560
10 173 546
10 174 557
10 175 547
10 176 545
10 177 552
10 178 544
10 179 551
10 180 553
10 181 554
10 182 556
10 183 552
10 184 552
10 185 547
10 186 543
10 187 555
10 188 547
10 189 548
10 190 562
10 191 544
10 192 549
10 193 553
10 194 551
10 195 543
10 196 551
10 197 551
10 198 556
10 199 541
20 1 613
20 2 597
20 3 607
20 4 604
20 5 610
20 6 600
20 7 605
20 8 600
20 9 601
20 10 615
20 11 605
20 12 623
20 13 600
20 14 597
20 15 597
20 16 605
20 17 598
20 18 598
20 19 599
20 20 605
20 21 588
20 22 616
20 23 599
20 24 599
20 25 599
20 26 607
20 27 602
20 28 616
20 29 603
20 30 604
20 31 605
20 32 600
20 33 592
20 34 599
20 35 596
20 36 605
20 37 609
20 38 612
20 39 610
20 40 600
20 41 601
20 42 593
20 43 607
20 44 608
20 45 601
20 46 612
20 47 598
20 48 595
20 49 603
20 50 602
20 51 594
20 52 602
20 53 599
20 54 594
20 55 590
20 56 597
20 57 601
20 58 602
20 59 609
20 60 615
20 61 592
20 62 599
20 63 590
20 64 598
20 65 608
20 66 612
20 67 607
20 68 583
20 69 608
20 70 598
20 71 606
20 72 619
20 73 617
20 74 590
20 75 597
20 76 604
20 77 588
20 78 604
20 79 607
20 80 608
20 81 593
20 82 605
20 83 606
20 84 606
20 85 596
20 86 602
20 87 612
20 88 608
20 89 593
20 90 615
20 91 615
20 92 597
20 93 606
20 94 611
20 95 616
20 96 614
20 97 607
20 98 600
20 99 593
20 100 602
20 101 615
20 102 611
20 103 611
20 104 599
20 105 606
20 106 612
20 107 616
20 108 598
20 109 606
20 110 597
20 111 606
20 112 601
20 113 599
20 114 589
20 115 604
20 116 613
20 117 606
20 118 591
20 119 608
20 120 597
20 121 608
20 122 599
20 123 604
20 124 609
20 125 595
20 126 606
20 127 602
20 128 604
20 129 602
20 130 603
20 131 595
20 132 594
20 133 601
20 134 593
20 135 601
20 136 603
20 137 619
20 138 591
20 139 595
20 140 609
20 141 602
20 142 600
20 143 593
20 144 601
20 145 606
20 146 608
20 147 607
20 148 605
20 149 592
20 150 604
20 151 596
20 152 607
20 153 605
20 154 604
20 155 607
20 156 604
20 157 603
20 158 609
20 159 604
20 160 600
20 161 593
20 162 608
20 163 602
20 164 607
20 165 612
20 166 594
20 167 605
20 168 609
20 169 608
20 170 593
20 171 599
20 172 604
20 173 596
20 174 608
20 175 609
20 176 598
20 177 597
20 178 599
20 179 614
20 180 609
20 181 598
20 182 605
20 183 593
20 184 585
20 185 613
20 186 601
20 187 607
20 188 596
20 189 610
20 190 596
20 191 614
20 192 609
20 193 604
20 194 595
20 195 599
20 196 601
20 197 600
20 198 603
20 199 608
30 1 623
30 2 628
30 3 626
30 4 625
30 5 618
30 6 625
30 7 625
30 8 629
30 9 631
30 10 627
30 11 628
30 12 622
30 13 627
30 14 625
30 15 626
30 16 624
30 17 627
30 18 628
30 19 625
30 20 628
30 21 627
30 22 625
30 23 619
30 24 627
30 25 616
30 26 630
30 27 625
30 28 627
30 29 628
30 30 627
30 31 625
30 32 630
30 33 631
30 34 628
30 35 627
30 36 630
30 37 624
30 38 621
30 39 626
30 40 626
30 41 627
30 42 621
30 43 623
30 44 630
30 45 623
30 46 629
30 47 619
30 48 620
30 49 624
30 50 624
30 51 626
30 52 628
30 53 621
30 54 624
30 55 624
30 56 624
30 57 620
30 58 621
30 59 628
30 60 620
30 61 623
30 62 629
30 63 628
30 64 625
30 65 631
30 66 627
30 67 626
30 68 622
30 69 620
30 70 629
30 71 630
30 72 624
30 73 619
30 74 627
30 75 625
30 76 614
30 77 623
30 78 619
30 79 628
30 80 626
30 81 629
30 82 614
30 83 628
30 84 624
30 85 623
30 86 623
30 87 624
30 88 616
30 89 631
30 90 631
30 91 628
30 92 630
30 93 623
30 94 629
30 95 622
30 96 624
30 97 623
30 98 629
30 99 627
30 100 624
30 101 623
30 102 620
30 103 623
30 104 628
30 105 617
30 106 628
30 107 620
30 108 622
30 109 622
30 110 622
30 111 624
30 112 623
30 113 623
30 114 627
30 115 628
30 116 625
30 117 625
30 118 627
30 119 630
30 120 625
30 121 624
30 122 627
30 123 624
30 124 628
30 125 618
30 126 623
30 127 626
30 128 624
30 129 626
30 130 629
30 131 627
30 132 627
30 133 614
30 134 630
30 135 627
30 136 629
30 137 628
30 138 630
30 139 630
30 140 623
30 141 629
30 142 625
30 143 620
30 144 631
30 145 625
30 146 619
30 147 619
30 148 621
30 149 622
30 150 623
30 151 628
30 152 625
30 153 630
30 154 620
30 155 625
30 156 626
30 157 625
30 158 619
30 159 628
30 160 630
30 161 626
30 162 622
30 163 634
30 164 622
30 165 625
30 166 628
30 167 624
30 168 622
30 169 619
30 170 632
30 171 628
30 172 629
30 173 627
30 174 614
30 175 618
30 176 627
30 177 630
30 178 622
30 179 632
30 180 622
30 181 626
30 182 626
30 183 620
30 184 631
30 185 625
30 186 632
30 187 631
30 188 625
30 189 633
30 190 630
30 191 623
30 192 626
30 193 625
30 194 623
30 195 624
30 196 624
30 197 624
30 198 626
30 199 626
40 1 631
40 2 632
40 3 633
40 4 635
40 5 630
40 6 630
40 7 637
40 8 637
40 9 633
40 10 630
40 11 632
40 12 631
40 13 629
40 14 636
40 15 632
40 16 631
40 17 630
40 18 632
40 19 629
40 20 630
40 21 632
40 22 631
40 23 631
40 24 630
40 25 631
40 26 634
40 27 633
40 28 631
40 29 630
40 30 633
40 31 630
40 32 632
40 33 630
40 34 628
40 35 631
40 36 636
40 37 629
40 38 631
40 39 630
40 40 635
40 41 631
40 42 632
40 43 630
40 44 632
40 45 632
40 46 631
40 47 632
40 48 631
40 49 633
40 50 632
40 51 628
40 52 635
40 53 631
40 54 631
40 55 633
40 56 636
40 57 634
40 58 633
40 59 629
40 60 630
40 61 636
40 62 634
40 63 632
40 64 637
40 65 630
40 66 631
40 67 633
40 68 631
40 69 635
40 70 635
40 71 629
40 72 629
40 73 634
40 74 632
40 75 632
40 76 633
40 77 635
40 78 628
40 79 627
40 80 631
40 81 628
40 82 633
40 83 634
40 84 635
40 85 631
40 86 635
40 87 634
40 88 634
40 89 628
40 90 625
40 91 630
40 92 634
40 93 632
40 94 637
40 95 633
40 96 634
40 97 631
40 98 630
40 99 629
40 100 632
40 101 634
40 102 633
40 103 637
40 104 637
40 105 625
40 106 626
40 107 635
40 108 630
40 109 628
40 110 631
40 111 628
40 112 629
40 113 627
40 114 632
40 115 630
40 116 626
40 117 632
40 118 628
40 119 628
40 120 631
40 121 632
40 122 637
40 123 635
40 124 625
40 125 624
40 126 635
40 127 634
40 128 631
40 129 632
40 130 636
40 131 633
40 132 636
40 133 634
40 134 635
40 135 634
40 136 632
40 137 639
40 138 630
40 139 632
40 140 633
40 141 633
40 142 633
40 143 622
40 144 633
40 145 636
40 146 627
40 147 631
40 148 631
40 149 633
40 150 633
40 151 637
40 152 633
40 153 633
40 154 631
40 155 628
40 156 634
40 157 629
40 158 631
40 159 624
40 160 632
40 161 632
40 162 635
40 163 634
40 164 630
40 165 629
40 166 631
40 167 633
40 168 633
40 169 627
40 170 632
40 171 627
40 172 631
40 173 626
40 174 633
40 175 632
40 176 625
40 177 627
40 178 632
40 179 633
40 180 626
40 181 630
40 182 629
40 183 622
40 184 628
40 185 631
40 186 633
40 187 628
40 188 635
40 189 631
40 190 628
40 191 633
40 192 634
40 193 633
40 194 629
40 195 629
40 196 629
40 197 633
40 198 626
40 199 634
50 1 637
50 2 640
50 3 636
50 4 627
50 5 634
50 6 632
50 7 634
50 8 635
50 9 632
50 10 634
50 11 629
50 12 631
50 13 634
50 14 632
50 15 631
50 16 631
50 17 637
50 18 636
50 19 636
50 20 638
50 21 637
50 22 635
50 23 627
50 24 636
50 25 636
50 26 630
50 27 630
50 28 635
50 29 635
50 30 638
50 31 635
50 32 637
50 33 632
50 34 632
50 35 632
50 36 636
50 37 631
50 38 632
50 39 636
50 40 638
50 41 636
50 42 632
50 43 635
50 44 632
50 45 632
50 46 635
50 47 634
50 48 631
50 49 630
50 50 633
50 51 631
50 52 635
50 53 636
50 54 630
50 55 636
50 56 631
50 57 630
50 58 631
50 59 635
50 60 633
50 61 637
50 62 634
50 63 635
50 64 631
50 65 635
50 66 635
50 67 636
50 68 634
50 69 634
50 70 631
50 71 633
50 72 636
50 73 639
50 74 638
50 75 633
50 76 635
50 77 633
50 78 635
50 79 634
50 80 635
50 81 635
50 82 636
50 83 634
50 84 638
50 85 637
50 86 637
50 87 632
50 88 631
50 89 636
50 90 635
50 91 636
50 92 635
50 93 637
50 94 636
50 95 631
50 96 634
50 97 637
50 98 635
50 99 633
50 100 634
50 101 634
50 102 632
50 103 634
50 104 636
50 105 637
50 106 633
50 107 636
50 108 635
50 109 636
50 110 635
50 111 631
50 112 633
50 113 637
50 114 637
50 115 634
50 116 635
50 117 635
50 118 636
50 119 635
50 120 633
50 121 633
50 122 634
50 123 636
50 124 632
50 125 635
50 126 634
50 127 632
50 128 635
50 129 636
50 130 635
50 131 635
50 132 632
50 133 633
50 134 633
50 135 632
50 136 631
50 137 636
50 138 634
50 139 636
50 140 637
50 141 638
50 142 633
50 143 638
50 144 636
50 145 638
50 146 629
50 147 632
50 148 636
50 149 633
50 150 633
50 151 637
50 152 635
50 153 638
50 154 634
50 155 638
50 156 638
50 157 635
50 158 635
50 159 635
50 160 635
50 161 632
50 162 634
50 163 635
50 164 638
50 165 637
50 166 636
50 167 637
50 168 632
50 169 633
50 170 636
50 171 635
50 172 638
50 173 632
50 174 636
50 175 633
50 176 636
50 177 636
50 178 635
50 179 636
50 180 635
50 181 636
50 182 635
50 183 635
50 184 635
50 185 636
50 186 635
50 187 636
50 188 637
50 189 635
50 190 635
50 191 636
50 192 632
50 193 636
50 194 636
50 195 637
50 196 635
50 197 636
50 198 630
50 199 635
60 1 635
60 2 637
60 3 632
60 4 633
60 5 636
60 6 638
60 7 638
60 8 634
60 9 638
60 10 633
60 11 637
60 12 638
60 13 636
60 14 635
60 15 636
60 16 635
60 17 636
60 18 637
60 19 634
60 20 637
60 21 638
60 22 631
60 23 636
60 24 637
60 25 638
60 26 634
60 27 640
60 28 637
60 29 634
60 30 635
60 31 635
60 32 635
60 33 637
60 34 635
60 35 639
60 36 634
60 37 637
60 38 638
60 39 635
60 40 636
60 41 638
60 42 637
60 43 636
60 44 635
60 45 638
60 46 636
60 47 636
60 48 635
60 49 636
60 50 639
60 51 638
60 52 634
60 53 635
60 54 639
60 55 637
60 56 635
60 57 635
60 58 640
60 59 637
60 60 635
60 61 634
60 62 637
60 63 634
60 64 641
60 65 637
60 66 638
60 67 638
60 68 635
60 69 633
60 70 634
60 71 636
60 72 636
60 73 636
60 74 636
60 75 635
60 76 636
60 77 635
60 78 637
60 79 638
60 80 633
60 81 637
60 82 635
60 83 635
60 84 639
60 85 637
60 86 636
60 87 637
60 88 634
60 89 638
60 90 639
60 91 638
60 92 636
60 93 633
60 94 638
60 95 640
60 96 638
60 97 638
60 98 635
60 99 637
60 100 635
60 101 634
60 102 637
60 103 640
60 104 637
60 105 638
60 106 633
60 107 637
60 108 638
60 109 634
60 110 636
60 111 634
60 112 636
60 113 640
60 114 637
60 115 635
60 116 637
60 117 634
60 118 633
60 119 635
60 120 638
60 121 634
60 122 638
60 123 637
60 124 638
60 125 635
60 126 634
60 127 634
60 128 638
60 129 634
60 130 635
60 131 634
60 132 639
60 133 633
60 134 636
60 135 635
60 136 638
60 137 636
60 138 636
60 139 636
60 140 631
60 141 636
60 142 636
60 143 635
60 144 637
60 145 636
60 146 639
60 147 637
60 148 635
60 149 637
60 150 636
60 151 638
60 152 637
60 153 637
60 154 637
60 155 633
60 156 637
60 157 636
60 158 637
60 159 639
60 160 638
60 161 637
60 162 635
60 163 636
60 164 635
60 165 636
60 166 635
60 167 634
60 168 634
60 169 636
60 170 636
60 171 636
60 172 636
60 173 639
60 174 633
60 175 636
60 176 634
60 177 635
60 178 637
60 179 638
60 180 636
60 181 637
60 182 638
60 183 633
60 184 636
60 185 638
60 186 639
60 187 636
60 188 636
60 189 639
60 190 632
60 191 636
60 192 640
60 193 637
60 194 638
60 195 634
60 196 634
60 197 638
60 198 635
60 199 635
70 1 638
70 2 636
70 3 634
70 4 636
70 5 636
70 6 639
70 7 640
70 8 639
70 9 638
70 10 639
70 11 637
70 12 641
70 13 638
70 14 638
70 15 635
70 16 634
70 17 637
70 18 639
70 19 637
70 20 634
70 21 637
70 22 638
70 23 635
70 24 639
70 25 636
70 26 638
70 27 636
70 28 638
70 29 636
70 30 639
70 31 638
70 32 636
70 33 635
70 34 638
70 35 636
70 36 637
70 37 637
70 38 638
70 39 637
70 40 638
70 41 638
70 42 638
70 43 635
70 44 638
70 45 641
70 46 641
70 47 637
70 48 638
70 49 636
70 50 637
70 51 639
70 52 638
70 53 638
70 54 640
70 55 637
70 56 638
70 57 638
70 58 636
70 59 639
70 60 637
70 61 635
70 62 640
70 63 639
70 64 637
70 65 639
70 66 639
70 67 637
70 68 641
70 69 636
70 70 634
70 71 634
70 72 634
70 73 640
70 74 637
70 75 635
70 76 637
70 77 637
70 78 635
70 79 639
70 80 636
70 81 636
70 82 637
70 83 639
70 84 638
70 85 637
70 86 635
70 87 635
70 88 638
70 89 636
70 90 634
70 91 639
70 92 637
70 93 636
70 94 637
70 95 639
70 96 636
70 97 637
70 98 636
70 99 638
70 100 636
70 101 631
70 102 638
70 103 637
70 104 635
70 105 633
70 106 640
70 107 637
70 108 637
70 109 636
70 110 636
70 111 636
70 112 636
70 113 637
70 114 638
70 115 638
70 116 638
70 117 637
70 118 639
70 119 638
70 120 638
70 121 639
70 122 637
70 123 639
70 124 634
70 125 636
70 126 635
70 127 636
70 128 637
70 129 639
70 130 637
70 131 638
70 132 639
70 133 637
70 134 636
70 135 633
70 136 638
70 137 635
70 138 635
70 139 636
70 140 634
70 141 637
70 142 634
70 143 637
70 144 639
70 145 637
70 146 637
70 147 634
70 148 638
70 149 638
70 150 635
70 151 637
70 152 638
70 153 638
70 154 637
70 155 633
70 156 638
70 157 639
70 158 639
70 159 638
70 160 638
70 161 637
70 162 638
70 163 638
70 164 637
70 165 639
70 166 636
70 167 639
70 168 640
70 169 636
70 170 637
70 171 639
70 172 637
70 173 635
70 174 640
70 175 638
70 176 640
70 177 636
70 178 637
70 179 639
70 180 634
70 181 634
70 182 637
70 183 637
70 184 633
70 185 638
70 186 638
70 187 637
70 188 635
70 189 637
70 190 638
70 191 639
70 192 640
70 193 638
70 194 635
70 195 637
70 196 636
70 197 638
70 198 638
70 199 637
80 1 639
80 2 640
80 3 639
80 4 637
80 5 638
80 6 638
80 7 639
80 8 640
80 9 638
80 10 636
80 11 640
80 12 638
80 13 634
80 14 637
80 15 638
80 16 640
80 17 634
80 18 639
80 19 638
80 20 638
80 21 639
80 22 638
80 23 640
80 24 638
80 25 640
80 26 639
80 27 636
80 28 638
80 29 637
80 30 638
80 31 639
80 32 639
80 33 638
80 34 640
80 35 639
80 36 639
80 37 640
80 38 637
80 39 639
80 40 640
80 41 637
80 42 637
80 43 635
80 44 639
80 45 637
80 46 637
80 47 639
80 48 636
80 49 635
80 50 637
80 51 637
80 52 637
80 53 638
80 54 637
80 55 640
80 56 636
80 57 637
80 58 636
80 59 637
80 60 638
80 61 635
80 62 641
80 63 637
80 64 639
80 65 637
80 66 640
80 67 635
80 68 638
80 69 641
80 70 641
80 71 638
80 72 640
80 73 640
80 74 637
80 75 639
80 76 639
80 77 637
80 78 638
80 79 639
80 80 637
80 81 637
80 82 639
80 83 634
80 84 637
80 85 638
80 86 637
80 87 636
80 88 640
80 89 640
80 90 637
80 91 640
80 92 639
80 93 639
80 94 636
80 95 634
80 96 638
80 97 639
80 98 639
80 99 637
80 100 636
80 101 637
80 102 637
80 103 636
80 104 639
80 105 640
80 106 638
80 107 639
80 108 639
80 109 639
80 110 640
80 111 640
80 112 638
80 113 636
80 114 636
80 115 638
80 116 640
80 117 636
80 118 638
80 119 635
80 120 640
80 121 638
80 122 640
80 123 639
80 124 637
80 125 638
80 126 636
80 127 641
80 128 637
80 129 640
80 130 635
80 131 639
80 132 642
80 133 636
80 134 641
80 135 640
80 136 638
80 137 640
80 138 637
80 139 640
80 140 639
80 141 638
80 142 637
80 143 636
80 144 638
80 145 640
80 146 639
80 147 637
80 148 639
80 149 636
80 150 642
80 151 635
80 152 636
80 153 637
80 154 637
80 155 639
80 156 638
80 157 640
80 158 638
80 159 637
80 160 639
80 161 639
80 162 640
80 163 638
80 164 638
80 165 640
80 166 637
80 167 640
80 168 637
80 169 638
80 170 636
80 171 640
80 172 638
80 173 640
80 174 637
80 175 638
80 176 638
80 177 639
80 178 641
80 179 639
80 180 639
80 181 640
80 182 641
80 183 640
80 184 639
80 185 636
80 186 638
80 187 637
80 188 636
80 189 637
80 190 636
80 191 639
80 192 639
80 193 637
80 194 637
80 195 637
80 196 637
80 197 641
80 198 639
80 199 637
90 1 639
90 2 638
90 3 640
90 4 636
90 5 636
90 6 638
90 7 637
90 8 636
90 9 642
90 10 635
90 11 640
90 12 638
90 13 639
90 14 639
90 15 638
90 16 638
90 17 640
90 18 638
90 19 637
90 20 639
90 21 638
90 22 639
90 23 640
90 24 641
90 25 636
90 26 639
90 27 640
90 28 637
90 29 639
90 30 640
90 31 642
90 32 638
90 33 636
90 34 641
90 35 640
90 36 638
90 37 640
90 38 639
90 39 640
90 40 638
90 41 638
90 42 638
90 43 637
90 44 637
90 45 639
90 46 636
90 47 636
90 48 642
90 49 638
90 50 638
90 51 636
90 52 640
90 53 637
90 54 638
90 55 638
90 56 638
90 57 639
90 58 641
90 59 638
90 60 637
90 61 641
90 62 638
90 63 639
90 64 638
90 65 637
90 66 636
90 67 637
90 68 638
90 69 638
90 70 640
90 71 641
90 72 641
90 73 640
90 74 636
90 75 637
90 76 637
90 77 639
90 78 639
90 79 640
90 80 636
90 81 638
90 82 639
90 83 637
90 84 639
90 85 639
90 86 638
90 87 639
90 88 638
90 89 639
90 90 639
90 91 639
90 92 639
90 93 641
90 94 638
90 95 638
90 96 639
90 97 639
90 98 639
90 99 639
90 100 639
90 101 638
90 102 635
90 103 640
90 104 642
90 105 637
90 106 637
90 107 639
90 108 639
90 109 637
90 110 639
90 111 640
90 112 640
90 113 640
90 114 640
90 115 638
90 116 637
90 117 639
90 118 638
90 119 640
90 120 641
90 121 640
90 122 641
90 123 639
90 124 640
90 125 641
90 126 637
90 127 641
90 128 639
90 129 639
90 130 639
90 131 636
90 132 638
90 133 638
90 134 637
90 135 640
90 136 641
90 137 638
90 138 639
90 139 638
90 140 639
90 141 638
90 142 637
90 143 640
90 144 639
90 145 640
90 146 638
90 147 639
90 148 638
90 149 636
90 150 638
90 151 640
90 152 640
90 153 638
90 154 640
90 155 641
90 156 640
90 157 636
90 158 638
90 159 640
90 160 638
90 161 639
90 162 637
90 163 638
90 164 639
90 165 635
90 166 637
90 167 637
90 168 640
90 169 638
90 170 639
90 171 637
90 172 636
90 173 639
90 174 638
90 175 640
90 176 639
90 177 640
90 178 638
90 179 638
90 180 640
90 181 639
90 182 639
90 183 639
90 184 637
90 185 634
90 186 638
90 187 640
90 188 640
90 189 635
90 190 637
90 191 637
90 192 640
90 193 640
90 194 640
90 195 640
90 196 640
90 197 640
90 198 641
90 199 638
100 1 638
100 2 641
100 3 639
100 4 637
100 5 636
100 6 636
100 7 641
100 8 640
100 9 638
100 10 639
100 11 640
100 12 640
100 13 640
100 14 635
100 15 642
100 16 639
100 17 639
100 18 640
100 19 638
100 20 638
100 21 639
100 22 637
100 23 639
100 24 639
100 25 638
100 26 640
100 27 640
100 28 640
100 29 637
100 30 642
100 31 642
100 32 640
100 33 639
100 34 636
100 35 639
100 36 637
100 37 641
100 38 642
100 39 637
100 40 641
100 41 642
100 42 638
100 43 640
100 44 637
100 45 638
100 46 638
100 47 641
100 48 640
100 49 641
100 50 639
100 51 639
100 52 640
100 53 638
100 54 641
100 55 641
100 56 639
100 57 639
100 58 640
100 59 639
100 60 641
100 61 640
100 62 638
100 63 636
100 64 639
100 65 639
100 66 639
100 67 639
100 68 641
100 69 638
100 70 640
100 71 639
100 72 639
100 73 639
100 74 638
100 75 641
100 76 638
100 77 641
100 78 639
100 79 641
100 80 640
100 81 638
100 82 640
100 83 638
100 84 640
100 85 640
100 86 639
100 87 636
100 88 639
100 89 636
100 90 640
100 91 638
100 92 640
100 93 638
100 94 641
100 95 640
100 96 640
100 97 642
100 98 638
100 99 637
100 100 640
100 101 639
100 102 637
100 103 637
100 104 634
100 105 640
100 106 639
100 107 636
100 108 641
100 109 643
100 110 640
100 111 639
100 112 635
100 113 639
100 114 639
100 115 639
100 116 639
100 117 637
100 118 640
100 119 636
100 120 642
100 121 638
100 122 638
100 123 639
100 124 639
100 125 640
100 126 637
100 127 640
100 128 637
100 129 640
100 130 641
100 131 639
100 132 639
100 133 640
100 134 637
100 135 638
100 136 639
100 137 639
100 138 640
100 139 639
100 140 639
100 141 637
100 142 639
100 143 636
100 144 637
100 145 640
100 146 639
100 147 638
100 148 639
100 149 639
100 150 639
100 151 639
100 152 638
100 153 637
100 154 637
100 155 639
100 156 640
100 157 639
100 158 638
100 159 640
100 160 638
100 161 637
100 162 637
100 163 639
100 164 637
100 165 637
100 166 638
100 167 637
100 168 641
100 169 634
100 170 639
100 171 637
100 172 636
100 173 638
100 174 638
100 175 639
100 176 640
100 177 642
100 178 640
100 179 639
100 180 639
100 181 639
100 182 638
100 183 637
100 184 638
100 185 637
100 186 639
100 187 640
100 188 638
100 189 641
100 190 640
100 191 641
100 192 637
100 193 640
100 194 640
100 195 638
100 196 640
100 197 636
100 198 640
100 199 638
110 1 637
110 2 638
110 3 638
110 4 640
110 5 639
110 6 640
110 7 637
110 8 639
110 9 637
110 10 639
110 11 640
110 12 639
110 13 641
110 14 639
110 15 640
110 16 635
110 17 639
110 18 641
110 19 642
110 20 639
110 21 638
110 22 641
110 23 640
110 24 640
110 25 638
110 26 636
110 27 639
110 28 640
110 29 641
110 30 636
110 31 639
110 32 637
110 33 641
110 34 639
110 35 638
110 36 640
110 37 639
110 38 642
110 39 641
110 40 641
110 41 639
110 42 638
110 43 638
110 44 641
110 45 640
110 46 641
110 47 639
110 48 638
110 49 637
110 50 639
110 51 638
110 52 640
110 53 638
110 54 640
110 55 639
110 56 641
110 57 641
110 58 637
110 59 640
110 60 638
110 61 640
110 62 640
110 63 640
110 64 638
110 65 640
110 66 638
110 67 642
110 68 640
110 69 638
110 70 640
110 71 639
110 72 640
110 73 638
110 74 637
110 75 640
110 76 640
110 77 641
110 78 637
110 79 638
110 80 639
110 81 641
110 82 636
110 83 638
110 84 641
110 85 641
110 86 639
110 87 640
110 88 639
110 89 640
110 90 637
110 91 637
110 92 637
110 93 638
110 94 640
110 95 638
110 96 641
110 97 639
110 98 642
110 99 639
110 100 638
110 101 639
110 102 639
110 103 638
110 104 639
110 105 640
110 106 640
110 107 640
110 108 640
110 109 638
110 110 637
110 111 638
110 112 640
110 113 640
110 114 639
110 115 638
110 116 641
110 117 642
110 118 639
110 119 640
110 120 639
110 121 638
110 122 641
110 123 640
110 124 640
110 125 637
110 126 636
110 127 641
110 128 640
110 129 640
110 130 638
110 131 639
110 132 639
110 133 639
110 134 640
110 135 639
110 136 640
110 137 640
110 138 640
110 139 638
110 140 639
110 141 641
110 142 637
110 143 640
110 144 639
110 145 640
110 146 639
110 147 638
110 148 641
110 149 638
110 150 639
110 151 640
110 152 637
110 153 638
110 154 639
110 155 639
110 156 638
110 157 641
110 158 638
110 159 638
110 160 640
110 161 641
110 162 641
110 163 639
110 164 638
110 165 639
110 166 641
110 167 640
110 168 638
110 169 641
110 170 640
110 171 638
110 172 641
110 173 639
110 174 641
110 175 640
110 176 640
110 177 639
110 178 638
110 179 638
110 180 637
110 181 639
110 182 639
110 183 639
110 184 639
110 185 639
110 186 640
110 187 639
110 188 637
110 189 638
110 190 641
110 191 640
110 192 641
110 193 642
110 194 641
110 195 637
110 196 640
110 197 640
110 198 641
110 199 641
120 1 642
120 2 637
120 3 641
120 4 642
120 5 640
120 6 639
120 7 640
120 8 640
120 9 639
120 10 638
120 11 638
120 12 637
120 13 639
120 14 638
120 15 641
120 16 640
120 17 635
120 18 641
120 19 641
120 20 641
120 21 640
120 22 640
120 23 640
120 24 640
120 25 639
120 26 640
120 27 640
120 28 639
120 29 640
120 30 641
120 31 639
120 32 641
120 33 639
120 34 638
120 35 641
120 36 640
120 37 641
120 38 641
120 39 639
120 40 639
120 41 641
120 42 640
120 43 642
120 44 638
120 45 641
120 46 640
120 47 642
120 48 637
120 49 638
120 50 642
120 51 640
120 52 638
120 53 638
120 54 641
120 55 640
120 56 635
120 57 639
120 58 639
120 59 638
120 60 637
120 61 638
120 62 640
120 63 640
120 64 639
120 65 639
120 66 641
120 67 641
120 68 639
120 69 639
120 70 639
120 71 640
120 72 637
120 73 641
120 74 641
120 75 639
120 76 641
120 77 639
120 78 641
120 79 640
120 80 640
120 81 642
120 82 638
120 83 638
120 84 641
120 85 640
120 86 641
120 87 640
120 88 640
120 89 639
120 90 640
120 91 638
120 92 641
120 93 641
120 94 642
120 95 638
120 96 639
120 97 641
120 98 638
120 99 642
120 100 641
120 101 641
120 102 641
120 103 639
120 104 642
120 105 641
120 106 640
120 107 640
120 108 640
120 109 638
120 110 637
120 111 639
120 112 641
120 113 638
120 114 636
120 115 638
120 116 641
120 117 640
120 118 637
120 119 640
120 120 640
120 121 642
120 122 639
120 123 638
120 124 643
120 125 639
120 126 639
120 127 641
120 128 641
120 129 639
120 130 641
120 131 643
120 132 638
120 133 641
120 134 640
120 135 638
120 136 640
120 137 639
120 138 641
120 139 641
120 140 639
120 141 641
120 142 640
120 143 638
120 144 639
120 145 642
120 146 641
120 147 641
120 148 640
120 149 638
120 150 642
120 151 639
120 152 639
120 153 641
120 154 639
120 155 640
120 156 639
120 157 639
120 158 640
120 159 639
120 160 637
120 161 638
120 162 641
120 163 639
120 164 638
120 165 639
120 166 639
120 167 639
120 168 638
120 169 639
120 170 640
120 171 639
120 172 640
120 173 641
120 174 639
120 175 638
120 176 641
120 177 637
120 178 640
120 179 639
120 180 640
120 181 642
120 182 639
120 183 641
120 184 641
120 185 640
120 186 640
120 187 638
120 188 641
120 189 640
120 190 640
120 191 639
120 192 637
120 193 642
120 194 638
120 195 641
120 196 642
120 197 640
120 198 641
120 199 639
130 1 641
130 2 639
130 3 640
130 4 642
130 5 638
130 6 640
130 7 641
130 8 641
130 9 641
130 10 640
130 11 638
130 12 638
130 13 641
130 14 639
130 15 641
130 16 638
130 17 642
130 18 642
130 19 640
130 20 640
130 21 640
130 22 640
130 23 640
130 24 640
130 25 640
130 26 640
130 27 642
130 28 638
130 29 637
130 30 638
130 31 640
130 32 638
130 33 640
130 34 642
130 35 639
130 36 639
130 37 638
130 38 640
130 39 641
130 40 640
130 41 641
130 42 643
130 43 640
130 44 641
130 45 639
130 46 641
130 47 638
130 48 639
130 49 640
130 50 640
130 51 642
130 52 641
130 53 642
130 54 638
130 55 641
130 56 637
130 57 638
130 58 639
130 59 639
130 60 639
130 61 641
130 62 641
130 63 638
130 64 638
130 65 641
130 66 641
130 67 638
130 68 641
130 69 639
130 70 641
130 71 640
130 72 640
130 73 641
130 74 639
130 75 641
130 76 641
130 77 642
130 78 640
130 79 640
130 80 638
130 81 638
130 82 641
130 83 638
130 84 639
130 85 638
130 86 638
130 87 640
130 88 641
130 89 639
130 90 638
130 91 641
130 92 638
130 93 640
130 94 637
130 95 641
130 96 639
130 97 638
130 98 640
130 99 641
130 100 641
130 101 641
130 102 640
130 103 641
130 104 641
130 105 641
130 106 640
130 107 640
130 108 640
130 109 641
130 110 638
130 111 642
130 112 640
130 113 638
130 114 640
130 115 640
130 116 641
130 117 640
130 118 640
130 119 639
130 120 637
130 121 639
130 122 641
130 123 638
130 124 640
130 125 641
130 126 640
130 127 638
130 128 637
130 129 639
130 130 643
130 131 640
130 132 639
130 133 637
130 134 641
130 135 638
130 136 641
130 137 638
130 138 641
130 139 642
130 140 640
130 141 637
130 142 638
130 143 640
130 144 640
130 145 640
130 146 639
130 147 637
130 148 639
130 149 641
130 150 639
130 151 641
130 152 639
130 153 641
130 154 639
130 155 639
130 156 639
130 157 639
130 158 641
130 159 641
130 160 640
130 161 641
130 162 641
130 163 638
130 164 640
130 165 638
130 166 642
130 167 635
130 168 639
130 169 641
130 170 640
130 171 638
130 172 638
130 173 641
130 174 641
130 175 640
130 176 640
130 177 641
130 178 640
130 179 641
130 180 639
130 181 639
130 182 635
130 183 637
130 184 640
130 185 637
130 186 641
130 187 639
130 188 642
130 189 641
130 190 640
130 191 639
130 192 640
130 193 639
130 194 640
130 195 641
130 196 641
130 197 641
130 198 640
130 199 639
140 1 641
140 2 641
140 3 641
140 4 642
140 5 640
140 6 642
140 7 640
140 8 641
140 9 639
140 10 641
140 11 641
140 12 639
140 13 640
140 14 641
140 15 640
140 16 643
140 17 640
140 18 638
140 19 639
140 20 638
140 21 639
140 22 638
140 23 641
140 24 640
140 25 639
140 26 639
140 27 640
140 28 642
140 29 640
140 30 638
140 31 641
140 32 640
140 33 639
140 34 640
140 35 642
140 36 639
140 37 640
140 38 640
140 39 641
140 40 638
140 41 638
140 42 640
140 43 639
140 44 640
140 45 641
140 46 639
140 47 639
140 48 638
140 49 637
140 50 640
140 51 642
140 52 641
140 53 638
140 54 640
140 55 640
140 56 642
140 57 640
140 58 641
140 59 642
140 60 639
140 61 639
140 62 640
140 63 638
140 64 639
140 65 641
140 66 639
140 67 640
140 68 641
140 69 638
140 70 642
140 71 634
140 72 641
140 73 639
140 74 642
140 75 640
140 76 640
140 77 642
140 78 640
140 79 639
140 80 640
140 81 642
140 82 639
140 83 639
140 84 639
140 85 641
140 86 641
140 87 638
140 88 641
140 89 643
140 90 640
140 91 641
140 92 641
140 93 640
140 94 639
140 95 641
140 96 643
140 97 638
140 98 639
140 99 641
140 100 640
140 101 640
140 102 639
140 103 640
140 104 638
140 105 638
140 106 641
140 107 641
140 108 638
140 109 640
140 110 639
140 111 640
140 112 641
140 113 641
140 114 642
140 115 639
140 116 638
140 117 638
140 118 639
140 119 641
140 120 640
140 121 639
140 122 641
140 123 640
140 124 642
140 125 641
140 126 639
140 127 639
140 128 640
140 129 640
140 130 641
140 131 640
140 132 640
140 133 640
140 134 640
140 135 641
140 136 640
140 137 641
140 138 639
140 139 639
140 140 637
140 141 640
140 142 638
140 143 639
140 144 638
140 145 639
140 146 641
140 147 640
140 148 642
140 149 641
140 150 639
140 151 641
140 152 639
140 153 640
140 154 635
140 155 641
140 156 641
140 157 641
140 158 640
140 159 641
140 160 642
140 161 638
140 162 639
140 163 641
140 164 638
140 165 641
140 166 640
140 167 639
140 168 640
140 169 640
140 170 637
140 171 641
140 172 641
140 173 640
140 174 643
140 175 641
140 176 640
140 177 641
140 178 642
140 179 640
140 180 639
140 181 639
140 182 641
140 183 640
140 184 640
140 185 639
140 186 641
140 187 640
140 188 639
140 189 639
140 190 637
140 191 639
140 192 639
140 193 643
140 194 637
140 195 641
140 196 639
140 197 641
140 198 640
140 199 641
150 1 640
150 2 639
150 3 640
150 4 637
150 5 640
150 6 639
150 7 639
150 8 640
150 9 638
150 10 641
150 11 641
150 12 642
150 13 637
150 14 640
150 15 640
150 16 639
150 17 640
150 18 638
150 19 637
150 20 641
150 21 639
150 22 638
150 23 642
150 24 640
150 25 642
150 26 641
150 27 639
150 28 641
150 29 641
150 30 641
150 31 642
150 32 642
150 33 637
150 34 639
150 35 639
150 36 641
150 37 640
150 38 638
150 39 640
150 40 638
150 41 639
150 42 639
150 43 639
150 44 639
150 45 641
150 46 640
150 47 639
150 48 642
150 49 642
150 50 641
150 51 639
150 52 642
150 53 640
150 54 640
150 55 639
150 56 641
150 57 642
150 58 641
150 59 640
150 60 639
150 61 642
150 62 643
150 63 641
150 64 640
150 65 640
150 66 639
150 67 641
150 68 641
150 69 640
150 70 638
150 71 641
150 72 641
150 73 641
150 74 640
150 75 641
150 76 640
150 77 638
150 78 641
150 79 642
150 80 640
150 81 641
150 82 639
150 83 641
150 84 639
150 85 639
150 86 641
150 87 640
150 88 641
150 89 639
150 90 641
150 91 639
150 92 641
150 93 638
150 94 639
150 95 638
150 96 642
150 97 640
150 98 639
150 99 641
150 100 640
150 101 641
150 102 637
150 103 642
150 104 640
150 105 637
150 106 638
150 107 640
150 108 639
150 109 640
150 110 640
150 111 639
150 112 638
150 113 637
150 114 640
150 115 640
150 116 639
150 117 641
150 118 639
150 119 639
150 120 638
150 121 640
150 122 640
150 123 640
150 124 639
150 125 640
150 126 642
150 127 640
150 128 636
150 129 640
150 130 640
150 131 639
150 132 641
150 133 640
150 134 640
150 135 637
150 136 640
150 137 640
150 138 636
150 139 639
150 140 639
150 141 640
150 142 639
150 143 640
150 144 639
150 145 638
150 146 641
150 147 642
150 148 639
150 149 638
150 150 637
150 151 642
150 152 640
150 153 643
150 154 638
150 155 638
150 156 640
150 157 640
150 158 639
150 159 640
150 160 642
150 161 638
150 162 639
150 163 641
150 164 640
150 165 638
150 166 640
150 167 641
150 168 639
150 169 640
150 170 641
150 171 638
150 172 637
150 173 641
150 174 642
150 175 636
150 176 640
150 177 641
150 178 638
150 179 640
150 180 638
150 181 640
150 182 641
150 183 639
150 184 640
150 185 640
150 186 639
150 187 639
150 188 643
150 189 638
150 190 640
150 191 640
150 192 640
150 193 640
150 194 641
150 195 640
150 196 641
150 197 638
150 198 640
150 199 639
160 1 641
160 2 640
160 3 639
160 4 638
160 5 641
160 6 640
160 7 642
160 8 641
160 9 641
160 10 640
160 11 641
160 12 640
160 13 640
160 14 641
160 15 641
160 16 640
160 17 639
160 18 641
160 19 640
160 20 639
160 21 639
160 22 638
160 23 640
160 24 640
160 25 641
160 26 639
160 27 642
160 28 641
160 29 639
160 30 640
160 31 638
160 32 640
160 33 640
160 34 639
160 35 640
160 36 639
160 37 639
160 38 639
160 39 642
160 40 639
160 41 638
160 42 641
160 43 640
160 44 640
160 45 638
160 46 638
160 47 641
160 48 639
160 49 639
160 50 640
160 51 641
160 52 640
160 53 641
160 54 640
160 55 641
160 56 640
160 57 638
160 58 641
160 59 640
160 60 639
160 61 639
160 62 641
160 63 641
160 64 638
160 65 641
160 66 642
160 67 640
160 68 639
160 69 639
160 70 640
160 71 639
160 72 640
160 73 641
160 74 642
160 75 640
160 76 640
160 77 637
160 78 638
160 79 643
160 80 640
160 81 639
160 82 641
160 83 641
160 84 641
160 85 639
160 86 639
160 87 641
160 88 635
160 89 638
160 90 642
160 91 639
160 92 641
160 93 639
160 94 639
160 95 641
160 96 638
160 97 639
160 98 642
160 99 640
160 100 639
160 101 641
160 102 640
160 103 639
160 104 638
160 105 636
160 106 642
160 107 640
160 108 640
160 109 639
160 110 640
160 111 638
160 112 639
160 113 637
160 114 642
160 115 641
160 116 640
160 117 641
160 118 642
160 119 638
160 120 639
160 121 640
160 122 640
160 123 639
160 124 642
160 125 640
160 126 640
160 127 639
160 128 641
160 129 640
160 130 641
160 131 642
160 132 639
160 133 640
160 134 639
160 135 642
160 136 639
160 137 638
160 138 639
160 139 640
160 140 642
160 141 640
160 142 640
160 143 641
160 144 641
160 145 641
160 146 641
160 147 638
160 148 642
160 149 640
160 150 641
160 151 639
160 152 638
160 153 640
160 154 640
160 155 640
160 156 641
160 157 639
160 158 642
160 159 641
160 160 641
160 161 640
160 162 640
160 163 640
160 164 640
160 165 639
160 166 640
160 167 640
160 168 640
160 169 642
160 170 641
160 171 639
160 172 642
160 173 640
160 174 640
160 175 641
160 176 642
160 177 641
160 178 642
160 179 643
160 180 643
160 181 637
160 182 642
160 183 639
160 184 642
160 185 641
160 186 641
160 187 639
160 188 638
160 189 642
160 190 639
160 191 642
160 192 640
160 193 639
160 194 641
160 195 640
160 196 641
160 197 638
160 198 639
160 199 640
170 1 640
170 2 639
170 3 639
170 4 640
170 5 641
170 6 639
170 7 641
170 8 639
170 9 640
170 10 641
170 11 641
170 12 640
170 13 642
170 14 640
170 15 641
170 16 640
170 17 640
170 18 640
170 19 639
170 20 641
170 21 640
170 22 641
170 23 640
170 24 641
170 25 638
170 26 639
170 27 641
170 28 640
170 29 640
170 30 641
170 31 640
170 32 641
170 33 638
170 34 641
170 35 640
170 36 640
170 37 640
170 38 641
170 39 642
170 40 639
170 41 640
170 42 640
170 43 638
170 44 637
170 45 639
170 46 642
170 47 639
170 48 640
170 49 638
170 50 642
170 51 638
170 52 641
170 53 640
170 54 639
170 55 639
170 56 640
170 57 640
170 58 640
170 59 638
170 60 642
170 61 640
170 62 640
170 63 640
170 64 641
170 65 637
170 66 638
170 67 640
170 68 641
170 69 640
170 70 641
170 71 640
170 72 640
170 73 642
170 74 641
170 75 640
170 76 641
170 77 640
170 78 640
170 79 643
170 80 642
170 81 642
170 82 640
170 83 642
170 84 639
170 85 639
170 86 640
170 87 640
170 88 640
170 89 641
170 90 640
170 91 643
170 92 640
170 93 643
170 94 639
170 95 637
170 96 639
170 97 639
170 98 640
170 99 640
170 100 640
170 101 641
170 102 639
170 103 638
170 104 641
170 105 642
170 106 638
170 107 637
170 108 641
170 109 642
170 110 639
170 111 640
170 112 639
170 113 638
170 114 641
170 115 641
170 116 642
170 117 637
170 118 641
170 119 641
170 120 641
170 121 643
170 122 640
170 123 641
170 124 641
170 125 639
170 126 641
170 127 640
170 128 641
170 129 638
170 130 642
170 131 640
170 132 638
170 133 638
170 134 639
170 135 641
170 136 641
170 137 640
170 138 640
170 139 638
170 140 641
170 141 643
170 142 639
170 143 642
170 144 641
170 145 641
170 146 638
170 147 641
170 148 640
170 149 641
170 150 642
170 151 642
170 152 640
170 153 641
170 154 640
170 155 640
170 156 641
170 157 640
170 158 639
170 159 638
170 160 640
170 161 638
170 162 640
170 163 640
170 164 641
170 165 637
170 166 640
170 167 641
170 168 640
170 169 640
170 170 639
170 171 639
170 172 641
170 173 641
170 174 639
170 175 642
170 176 636
170 177 642
170 178 639
170 179 639
170 180 639
170 181 642
170 182 635
170 183 641
170 184 641
170 185 641
170 186 641
170 187 640
170 188 641
170 189 641
170 190 638
170 191 641
170 192 641
170 193 640
170 194 640
170 195 640
170 196 640
170 197 641
170 198 640
170 199 641
180 1 639
180 2 641
180 3 639
180 4 640
180 5 643
180 6 642
180 7 640
180 8 640
180 9 640
180 10 639
180 11 640
180 12 640
180 13 637
180 14 641
180 15 640
180 16 642
180 17 640
180 18 639
180 19 641
180 20 642
180 21 639
180 22 641
180 23 639
180 24 642
180 25 641
180 26 641
180 27 641
180 28 640
180 29 641
180 30 639
180 31 640
180 32 641
180 33 641
180 34 641
180 35 640
180 36 642
180 37 638
180 38 642
180 39 641
180 40 641
180 41 641
180 42 641
180 43 638
180 44 640
180 45 641
180 46 639
180 47 642
180 48 642
180 49 641
180 50 641
180 51 640
180 52 643
180 53 642
180 54 642
180 55 638
180 56 640
180 57 641
180 58 639
180 59 641
180 60 642
180 61 642
180 62 641
180 63 640
180 64 642
180 65 640
180 66 638
180 67 641
180 68 641
180 69 642
180 70 640
180 71 639
180 72 642
180 73 641
180 74 636
180 75 640
180 76 638
180 77 639
180 78 637
180 79 640
180 80 641
180 81 641
180 82 641
180 83 642
180 84 640
180 85 638
180 86 639
180 87 641
180 88 642
180 89 638
180 90 639
180 91 640
180 92 641
180 93 640
180 94 641
180 95 642
180 96 641
180 97 638
180 98 639
180 99 642
180 100 641
180 101 641
180 102 642
180 103 642
180 104 642
180 105 641
180 106 639
180 107 641
180 108 641
180 109 641
180 110 638
180 111 639
180 112 639
180 113 641
180 114 642
180 115 639
180 116 638
180 117 639
180 118 639
180 119 640
180 120 641
180 121 639
180 122 640
180 123 639
180 124 639
180 125 641
180 126 638
180 127 640
180 128 640
180 129 640
180 130 642
180 131 641
180 132 640
180 133 640
180 134 642
180 135 640
180 136 641
180 137 641
180 138 641
180 139 639
180 140 642
180 141 642
180 142 639
180 143 641
180 144 641
180 145 642
180 146 638
180 147 642
180 148 641
180 149 640
180 150 640
180 151 642
180 152 639
180 153 640
180 154 639
180 155 639
180 156 643
180 157 641
180 158 639
180 159 642
180 160 638
180 161 641
180 162 641
180 163 636
180 164 642
180 165 640
180 166 639
180 167 640
180 168 640
180 169 639
180 170 642
180 171 641
180 172 639
180 173 640
180 174 639
180 175 639
180 176 640
180 177 640
180 178 641
180 179 639
180 180 641
180 181 639
180 182 641
180 183 638
180 184 641
180 185 639
180 186 639
180 187 641
180 188 642
180 189 638
180 190 641
180 191 638
180 192 642
180 193 640
180 194 641
180 195 643
180 196 641
180 197 640
180 198 639
180 199 640
190 1 642
190 2 641
190 3 641
190 4 642
190 5 641
190 6 641
190 7 641
190 8 638
190 9 641
190 10 642
190 11 641
190 12 643
190 13 639
190 14 640
190 15 640
190 16 642
190 17 641
190 18 639
190 19 640
190 20 640
190 21 641
190 22 639
190 23 641
190 24 639
190 25 641
190 26 640
190 27 640
190 28 642
190 29 641
190 30 640
190 31 640
190 32 641
190 33 642
190 34 641
190 35 640
190 36 641
190 37 641
190 38 641
190 39 641
190 40 641
190 41 641
190 42 641
190 43 641
190 44 639
190 45 640
190 46 641
190 47 640
190 48 639
190 49 639
190 50 639
190 51 641
190 52 641
190 53 640
190 54 642
190 55 638
190 56 642
190 57 641
190 58 639
190 59 640
190 60 637
190 61 641
190 62 640
190 63 642
190 64 642
190 65 640
190 66 639
190 67 639
190 68 640
190 69 640
190 70 636
190 71 638
190 72 642
190 73 640
190 74 641
190 75 639
190 76 641
190 77 638
190 78 640
190 79 635
190 80 641
190 81 642
190 82 641
190 83 640
190 84 642
190 85 641
190 86 640
190 87 639
190 88 640
190 89 640
190 90 642
190 91 639
190 92 642
190 93 640
190 94 641
190 95 641
190 96 642
190 97 639
190 98 639
190 99 642
190 100 641
190 101 640
190 102 639
190 103 640
190 104 640
190 105 640
190 106 640
190 107 642
190 108 640
190 109 640
190 110 642
190 111 640
190 112 641
190 113 641
190 114 638
190 115 641
190 116 642
190 117 640
190 118 641
190 119 639
190 120 641
190 121 639
190 122 640
190 123 640
190 124 636
190 125 640
190 126 642
190 127 642
190 128 640
190 129 639
190 130 641
190 131 641
190 132 639
190 133 641
190 134 640
190 135 640
190 136 639
190 137 641
190 138 641
190 139 641
190 140 641
190 141 643
190 142 641
190 143 639
190 144 641
190 145 640
190 146 642
190 147 641
190 148 641
190 149 639
190 150 641
190 151 640
190 152 642
190 153 640
190 154 637
190 155 640
190 156 642
190 157 640
190 158 639
190 159 640
190 160 638
190 161 641
190 162 641
190 163 639
190 164 642
190 165 639
190 166 642
190 167 638
190 168 641
190 169 639
190 170 642
190 171 641
190 172 640
190 173 639
190 174 640
190 175 640
190 176 641
190 177 640
190 178 640
190 179 641
190 180 641
190 181 642
190 182 642
190 183 639
190 184 639
190 185 641
190 186 642
190 187 640
190 188 639
190 189 640
190 190 642
190 191 641
190 192 640
190 193 643
190 194 641
190 195 640
190 196 638
190 197 642
190 198 639
190 199 642
