#Quand on veut avoir le png decomenter la ligne ci dessous
set term wxt
set out

root = '/usagers/bepala/INF4705/H2015'
set terminal png

set xtics font "Times-Roman, 10" 
set pointsize 4
set xlabel "Nombre d'elements"
set ylabel "Temps (us)"
FIT_LIMIT=1.e-14

set output root.'/TP1/Data/Resultats/MergeSort/NoThreshold/results_constantes_0.png'
fichierResultat = root.'/TP1/Data/Resultats/MergeSort/NoThreshold/resultats_0.txt'

#Le fit pour ce graphe
func1(x) = x*log10(x)
func2(y) = y
f(x) = m*x + b
fit f(x) fichierResultat using (func1($1)):(func2($2)) via m,b

title_f(b) = sprintf('f(x) = %.9fx + %.9f', m, b)

set title 'Merge Sort - Seuil de 1 - Serie 1 - Calcul des constantes'

plot fichierResultat using (func1($1)):(func2($2)) notitle with points, f(x) t title_f(b)
replot

set output root.'/TP1/Data/Resultats/MergeSort/NoThreshold/results_constantes_1.png'
fichierResultat = root.'/TP1/Data/Resultats/MergeSort/NoThreshold/resultats_1.txt'

#Le fit pour ce graphe
func1(x) = x*log10(x)
func2(y) = y
f(x) = m*x + b
fit f(x) fichierResultat using (func1($1)):(func2($2)) via m,b

title_f(b) = sprintf('f(x) = %.9fx + %.9f', m, b)

set title 'Merge Sort - Seuil de 1 - Serie 2 - Calcul des constantes'

plot fichierResultat using (func1($1)):(func2($2)) notitle with points, f(x) t title_f(b)
replot

set output root.'/TP1/Data/Resultats/MergeSort/NoThreshold/results_constantes_2.png'
fichierResultat = root.'/TP1/Data/Resultats/MergeSort/NoThreshold/resultats_2.txt'

#Le fit pour ce graphe
func1(x) = x*log10(x)
func2(y) = y
f(x) = m*x + b
fit f(x) fichierResultat using (func1($1)):(func2($2)) via m,b

title_f(b) = sprintf('f(x) = %.9fx + %.9f', m, b)

set title 'Merge Sort - Seuil de 1 - Serie 3 - Calcul des constantes'

plot fichierResultat using (func1($1)):(func2($2)) notitle with points, f(x) t title_f(b)
replot







