#Quand on veut avoir le png decomenter la ligne ci dessous
set term wxt
set out

root = '/usagers/bepala/INF4705/H2015'
set terminal png
set output root.'/TP1/Data/Resultats/MergeSort/ThresholdTest/results_thresTest.png'
fichierResultat = root.'/TP1/Data/Resultats/MergeSort/ThresholdTest/resultats_thres_500000.txt'

set xtics font "Times-Roman, 10" 
set style line 1 lt 1 lw 2 pt 7 ps 1.5

set xlabel "Seuil"
set ylabel "Temps (us)"

#Le fit pour ce graphe
set title 'Temps selon le seuil - Moyenne de 500k elements - Set 0:9'

plot fichierResultat using 1:2 notitle with linespoints ls 1
replot




