#Quand on veut avoir le png decomenter la ligne ci dessous
set term wxt
set out

root = '/usagers/bepala/INF4705/H2015'
set terminal png

set xtics font "Times-Roman, 10" 
set pointsize 4
set xlabel "Nombre d'elements"
set ylabel "Temps (ms)"

set output root.'/TP1/Data/Resultats/results_SS_constantes_0.png'
fichierResultat = root.'/TP1/Data/Resultats/resultats_SS_0.txt'

#Le fit pour ce graphe
func1(x) = x**2
func2(y) = y
f(x) = m*x + b
fit f(x) fichierResultat using (func1($1)):(func2($2)) via m,b

title_f(b) = sprintf('f(x) = %.9fx + %.9f', m, b)

set title 'SelectionSort - Serie 1 - Calcul des constantes'

plot fichierResultat using (func1($1)):(func2($2)) notitle with points, f(x) t title_f(b)
replot

set output root.'/TP1/Data/Resultats/results_SS_constantes_1.png'
fichierResultat = root.'/TP1/Data/Resultats/resultats_SS_1.txt'

#Le fit pour ce graphe
func1(x) = x**2
func2(y) = y
f(x) = m*x + b
fit f(x) fichierResultat using (func1($1)):(func2($2)) via m,b

title_f(b) = sprintf('f(x) = %.9fx + %.9f', m, b)

set title 'SelectionSort - Serie 2 - Calcul des constantes'

plot fichierResultat using (func1($1)):(func2($2)) notitle with points, f(x) t title_f(b)
replot

set output root.'/TP1/Data/Resultats/results_SS_constantes_2.png'
fichierResultat = root.'/TP1/Data/Resultats/resultats_SS_2.txt'

#Le fit pour ce graphe
func1(x) = x**2
func2(y) = y
f(x) = m*x + b
fit f(x) fichierResultat using (func1($1)):(func2($2)) via m,b

title_f(b) = sprintf('f(x) = %.9fx + %.9f', m, b)

set title 'SelectionSort - Serie 3 - Calcul des constantes'

plot fichierResultat using (func1($1)):(func2($2)) notitle with points, f(x) t title_f(b)
replot







