#Quand on veut avoir le png decomenter la ligne ci dessous
set term wxt
set out

root = '/usagers/bepala/INF4705/H2015'
set terminal png

set xtics font "Times-Roman, 10" 
set pointsize 4
set xlabel "Nombre d'elements"
set ylabel "Temps (ms)"
set logscale x 10
set logscale y 10



set output root.'/TP1/Data/Resultats/results_SS_puissance_0.png'
fichierResultat = root.'/TP1/Data/Resultats/resultats_SS_0.txt'

#Le fit pour ce graphe
f(x) = 10**b * x**m
fit f(x) fichierResultat using 1:2 via m,b

title_f(m,b) = sprintf('f(x) = 10^%0.4f* x^%.4f', b, m)

set title 'SelectionSort - Serie 1 - Test de puissance'

plot fichierResultat using 1:2 notitle with points, f(x) t title_f(m,b)
replot

set output root.'/TP1/Data/Resultats/results_SS_puissance_1.png'
fichierResultat = root.'/TP1/Data/Resultats/resultats_SS_1.txt'

#Le fit pour ce graphe
f(x) = 10**b * x**m
fit f(x) fichierResultat using 1:2 via m,b

title_f(m,b) = sprintf('f(x) = 10^%0.4f* x^%.4f', b, m)

set title 'SelectionSort - Serie 2 - Test de puissance'

plot fichierResultat using 1:2 notitle with points, f(x) t title_f(m,b)
replot

set output root.'/TP1/Data/Resultats/results_SS_puissance_2.png'
fichierResultat = root.'/TP1/Data/Resultats/resultats_SS_2.txt'

#Le fit pour ce graphe
f(x) = 10**b * x**m
fit f(x) fichierResultat using 1:2 via m,b

title_f(m,b) = sprintf('f(x) = 10^%0.4f* x^%.4f', b, m)

set title 'SelectionSort - Serie 3 - Test de puissance'

plot fichierResultat using 1:2 notitle with points, f(x) t title_f(m,b)
replot





