#Quand on veut avoir le png decomenter la ligne ci dessous
set term wxt
set out

root = '/usagers/bepala/INF4705/H2015'
set terminal png

set xtics font "Times-Roman, 10" 
set pointsize 4
set xlabel "Nombre d'elements"
set ylabel "Temps (ms)"

set output root.'/TP1/Data/Resultats/results_SS_rapport_0.png'
fichierResultat = root.'/TP1/Data/Resultats/resultats_SS_0.txt'

#Le fit pour ce graphe
func1(x) = x
func3(x, y) = y/(x**2)
f(x) = (x == 0) ? 0 : a*x**b
fit f(x) fichierResultat using (func1($1)) :(func3($1, $2)) via a,b

title_f(b) = sprintf('f(x) = %0.9f*x^%0.9f', a,b)

set title 'SelectionSort - Serie 1 - Test de rapport'

plot fichierResultat using (func1($1)):(func3($1, $2)) notitle with points, f(x) t title_f(b)
replot

set output root.'/TP1/Data/Resultats/results_SS_rapport_1.png'
fichierResultat = root.'/TP1/Data/Resultats/resultats_SS_1.txt'

#Le fit pour ce graphe
func1(x) = x
func3(x, y) = y/(x**2)
f(x) = (x == 0) ? 0 : a*x**b
fit f(x) fichierResultat using (func1($1)) :(func3($1, $2)) via a,b

title_f(b) = sprintf('f(x) = %0.9f*x^%0.9f', a,b)

set title 'SelectionSort - Serie 2 - Test de rapport'

plot fichierResultat using (func1($1)):(func3($1, $2)) notitle with points, f(x) t title_f(b)
replot

set output root.'/TP1/Data/Resultats/results_SS_rapport_2.png'
fichierResultat = root.'/TP1/Data/Resultats/resultats_SS_2.txt'

#Le fit pour ce graphe
func1(x) = x
func3(x, y) = y/(x**2)
f(x) = (x == 0) ? 0 : a*x**b
fit f(x) fichierResultat using (func1($1)) :(func3($1, $2)) via a,b

title_f(b) = sprintf('f(x) = %0.9f*x^%0.9f', a,b)

set title 'SelectionSort - Serie 3 - Test de rapport'

plot fichierResultat using (func1($1)):(func3($1, $2)) notitle with points, f(x) t title_f(b)
replot






