#Quand on veut avoir le png decomenter la ligne ci dessous
set term wxt
set out

root = '/usagers/bepala/INF4705/H2015'
set terminal png
set output root.'/TP1/Data/Resultats/results_SS_normal_0.png'
fichierResultat = root.'/TP1/Data/Resultats/resultats_SS_0.txt'

set xtics font "Times-Roman, 10" 
set pointsize 4
set xlabel "Nombre d'elements"
set ylabel "Temps (ms)"

#Le fit pour ce graphe
f(x) = m*x**2 + b
fit f(x) fichierResultat using 1:2 via m,b

title_f(m,b) = sprintf('f(x) = %.9fx^2 + %.2f', m, b)

set title 'SelectionSort - Serie 1'

plot fichierResultat using 1:2 notitle with points, f(x) t title_f(m,b)
replot

set output root.'/TP1/Data/Resultats/results_SS_normal_1.png'
fichierResultat = root.'/TP1/Data/Resultats/resultats_SS_1.txt'

#Le fit pour ce graphe
f(x) = m*x**2 + b
fit f(x) fichierResultat using 1:2 via m,b

title_f(m,b) = sprintf('f(x) = %.9fx^2 + %.2f', m, b)
set title 'SelectionSort - Serie 1'

plot fichierResultat using 1:2 notitle with points, f(x) t title_f(m,b)
replot

set output root.'/TP1/Data/Resultats/results_SS_normal_2.png'
fichierResultat = root.'/TP1/Data/Resultats/resultats_SS_2.txt'

#Le fit pour ce graphe
f(x) = m*x**2 + b
fit f(x) fichierResultat using 1:2 via m,b

title_f(m,b) = sprintf('f(x) = %.9fx^2 + %.2f', m, b)

set title 'SelectionSort - Serie 1'
plot fichierResultat using 1:2 notitle with points, f(x) t title_f(m,b)
replot




