set term wxt
set out

allRoot = '/usagers/bepala/INF4705/H2015/TP1/Data/Resultats/'

load allRoot.'/gnuplot_SS_normal.ps'
load allRoot.'/gnuplot_SS_puissance.ps'
load allRoot.'/gnuplot_SS_rapport.ps'
load allRoot.'/gnuplot_SS_constantes.ps'