#Quand on veut avoir le png decomenter la ligne ci dessous
set term wxt
set out

root = '/usagers/bepala/INF4705/H2015'
set terminal png
set output root.'/TP1/Data/Resultats/MergeSort/Threshold25/results_normal_0.png'
fichierResultat = root.'/TP1/Data/Resultats/MergeSort/Threshold25/resultats_0.txt'

set xtics font "Times-Roman, 10" 
set pointsize 4
set xlabel "Nombre d'elements"
set ylabel "Temps (us)"
set xtics font "Times-Roman, 10" 
set style line 1 lt 1 lw 2 pt 7 ps 1.5

#Le fit pour ce graphe
f(x) = m*x + b
fit f(x) fichierResultat using 1:2 via m,b

title_f(m,b) = sprintf('f(x) = %.9fx + %.9f', m, b)

set title 'Merge Sort Seuil de 25 - Serie 1'

plot fichierResultat using 1:2 notitle with linespoints ls 1
#, f(x) t title_f(m,b)
replot

set output root.'/TP1/Data/Resultats/MergeSort/Threshold25/results_normal_1.png'
fichierResultat = root.'/TP1/Data/Resultats/MergeSort/Threshold25/resultats_1.txt'

#Le fit pour ce graphe
#f(x) = x + b
#fit f(x) fichierResultat using 1:2 via b

title_f(b) = sprintf('f(x) = x + %.9f', b)

set title 'Merge Sort Seuil de 25 - Serie 2'

plot fichierResultat using 1:2 notitle with linespoints ls 1
#, f(x) t title_f(b)
replot

set output root.'/TP1/Data/Resultats/MergeSort/Threshold25/results_normal_2.png'
fichierResultat = root.'/TP1/Data/Resultats/MergeSort/Threshold25/resultats_2.txt'

#Le fit pour ce graphe
#f(x) = x + b
#fit f(x) fichierResultat using 1:2 via b

title_f(b) = sprintf('f(x) = x + %.9f', b)

set title 'Merge Sort Seuil de 25 - Serie 3'

plot fichierResultat using 1:2 notitle with linespoints ls 1
#, f(x) t title_f(b)
replot




